<define-tag pagetitle>DSA-4947-1 libsndfile</define-tag>
<define-tag report_date>2021-7-30</define-tag>
<define-tag secrefs>CVE-2021-3246 Bug#991496</define-tag>
<define-tag packages>libsndfile</define-tag>
<define-tag isvulnerable>yes</define-tag>
<define-tag fixed>yes</define-tag>
<define-tag fixed-section>no</define-tag>

#use wml::debian::security



</dl>
