<define-tag pagetitle>DSA-4676-1 salt</define-tag>
<define-tag report_date>2020-5-06</define-tag>
<define-tag secrefs>CVE-2019-17361 CVE-2020-11651 CVE-2020-11652 Bug#949222 Bug#959684</define-tag>
<define-tag packages>salt</define-tag>
<define-tag isvulnerable>yes</define-tag>
<define-tag fixed>yes</define-tag>
<define-tag fixed-section>no</define-tag>

#use wml::debian::security



</dl>
