<define-tag pagetitle>DLA-2750-1 exiv2</define-tag>
<define-tag report_date>2021-08-30</define-tag>
<define-tag secrefs>CVE-2019-20421 CVE-2021-3482 CVE-2021-29457 CVE-2021-29473 CVE-2021-31291 CVE-2021-31292 Bug#950183 Bug#986888 Bug#987277 Bug#991705 Bug#991705 Bug#991706</define-tag>
<define-tag packages>exiv2</define-tag>
<define-tag isvulnerable>yes</define-tag>
<define-tag fixed>yes</define-tag>
<define-tag fixed-section>no</define-tag>

#use wml::debian::security

