<define-tag pagetitle>DLA-932-1 ghostscript</define-tag>
<define-tag report_date>2017-5-7</define-tag>
<define-tag secrefs>CVE-2017-8291 Bug#861295</define-tag>
<define-tag packages>ghostscript</define-tag>
<define-tag isvulnerable>yes</define-tag>
<define-tag fixed>yes</define-tag>
<define-tag fixed-section>no</define-tag>

#use wml::debian::security

