<define-tag pagetitle>DLA-1382-1 thunderbird</define-tag>
<define-tag report_date>2018-5-25</define-tag>
<define-tag secrefs>CVE-2018-5150 CVE-2018-5154 CVE-2018-5155 CVE-2018-5159 CVE-2018-5161 CVE-2018-5162 CVE-2018-5168 CVE-2018-5170 CVE-2018-5178 CVE-2018-5183 CVE-2018-5184 CVE-2018-5185</define-tag>
<define-tag packages>thunderbird</define-tag>
<define-tag isvulnerable>yes</define-tag>
<define-tag fixed>yes</define-tag>
<define-tag fixed-section>no</define-tag>

#use wml::debian::security

