<define-tag pagetitle>DLA-1288-1 cups</define-tag>
<define-tag report_date>2018-2-22</define-tag>
<define-tag secrefs>CVE-2017-18190</define-tag>
<define-tag packages>cups</define-tag>
<define-tag isvulnerable>yes</define-tag>
<define-tag fixed>yes</define-tag>
<define-tag fixed-section>no</define-tag>

#use wml::debian::security

