<define-tag pagetitle>DLA-1363-1 ghostscript</define-tag>
<define-tag report_date>2018-4-25</define-tag>
<define-tag secrefs>CVE-2018-10194 Bug#896069</define-tag>
<define-tag packages>ghostscript</define-tag>
<define-tag isvulnerable>yes</define-tag>
<define-tag fixed>yes</define-tag>
<define-tag fixed-section>no</define-tag>

#use wml::debian::security

