<define-tag pagetitle>DSA-4561-1 fribidi</define-tag>
<define-tag report_date>2019-11-08</define-tag>
<define-tag secrefs>CVE-2019-18397 Bug#944327</define-tag>
<define-tag packages>fribidi</define-tag>
<define-tag isvulnerable>yes</define-tag>
<define-tag fixed>yes</define-tag>
<define-tag fixed-section>no</define-tag>

#use wml::debian::security



</dl>
