<define-tag pagetitle>DLA-290-2 opensaml2</define-tag>
<define-tag report_date>2015-8-10</define-tag>
<define-tag secrefs>CVE-2015-0851</define-tag>
<define-tag packages>opensaml2</define-tag>
<define-tag isvulnerable>yes</define-tag>
<define-tag fixed>yes</define-tag>
<define-tag fixed-section>no</define-tag>

#use wml::debian::security

