<define-tag pagetitle>DLA-1928-1 php5</define-tag>
<define-tag report_date>2019-09-20</define-tag>
<define-tag secrefs>Bug#805222</define-tag>
<define-tag packages>php5</define-tag>
<define-tag isvulnerable>yes</define-tag>
<define-tag fixed>yes</define-tag>
<define-tag fixed-section>no</define-tag>

#use wml::debian::security

