<define-tag pagetitle>DLA-606-1 tiff</define-tag>
<define-tag report_date>2016-8-30</define-tag>
<define-tag secrefs>CVE-2016-3991 CVE-2016-5314 CVE-2016-5315 CVE-2016-5316 CVE-2016-5317 CVE-2016-5320 CVE-2016-5321 CVE-2016-5322 CVE-2016-5323 CVE-2016-5875</define-tag>
<define-tag packages>tiff</define-tag>
<define-tag isvulnerable>yes</define-tag>
<define-tag fixed>yes</define-tag>
<define-tag fixed-section>no</define-tag>

#use wml::debian::security

